...Logging started...
0.0473168: Server Started
0.6945598: RespondedAwaitingApproval 5664459181867382511 127.0.0.1
0.7168528: RespondedConnect 5664459181867382511 127.0.0.1
0.7179165: Connected 5664459181867382511 127.0.0.1
0.7241705: => Outgoing RPC Sent to: SingleClient as SingleClient NetSyncId: -1 Function: StartVoIP( 1 )

0.7263852: => Outgoing RPC Sent to: SingleClient as SingleClient NetSyncId: -1 Function: SetPlayerId( 1 )

0.7276972: => Outgoing RPC Sent to: SingleClient as SingleClient NetSyncId: -1 Function: SetTeam( 2 )

1.7713209: AreaChange 5664459181867382511 127.0.0.1
2.8376317: RespondedAwaitingApproval -6268451533169947639 127.0.0.1
2.8612763: RespondedConnect -6268451533169947639 127.0.0.1
2.8620281: Connected -6268451533169947639 127.0.0.1
2.8630475: => Outgoing RPC Sent to: SingleClient as SingleClient NetSyncId: -1 Function: StartVoIP( 2 )

2.8640072: => Outgoing RPC Sent to: SingleClient as SingleClient NetSyncId: -1 Function: SetPlayerId( 2 )

2.8649511: => Outgoing RPC Sent to: SingleClient as SingleClient NetSyncId: -1 Function: SetTeam( 1 )

2.8659206: => Outgoing RPC Sent to: SingleClient as SingleClient NetSyncId: -1 Function: NewPlayerConnected( 1, 2 )

2.8671451: => Outgoing RPC Sent to: SingleClient as SingleClient NetSyncId: -1 Function: NewPlayerConnected( 2, 1 )

2.8815972: AreaChange -6268451533169947639 127.0.0.1
5.0343153: RPC ServerOnly NetSyncId: -1 Function: SetName( a )

5.0390354: => Outgoing RPC Sent to: AllClients as SingleClient NetSyncId: -1 Function: PlayerNameChanged( 2, a )

5.1928753: RPC ServerOnly NetSyncId: -1 Function: SetName( aa )

5.1944533: => Outgoing RPC Sent to: AllClients as SingleClient NetSyncId: -1 Function: PlayerNameChanged( 2, aa )

6.2579048: RPC ServerOnly NetSyncId: -1 Function: SetCharacterType( 2 )

6.2602279: => Outgoing RPC Sent to: AllClients as SingleClient NetSyncId: -1 Function: PlayerClassChanged( 2, 2 )

6.2651031: RPC ServerOnly NetSyncId: -1 Function: SetCharacterType( 2 )

6.2662744: => Outgoing RPC Sent to: AllClients as SingleClient NetSyncId: -1 Function: PlayerClassChanged( 2, 2 )

6.2677519: RPC ServerOnly NetSyncId: -1 Function: Ready( True )

6.2698265: => Outgoing RPC Sent to: AllClients as SingleClient NetSyncId: -1 Function: PlayerIsReady( 2, True )

8.8614941: RPC ServerOnly NetSyncId: -1 Function: SetName( f )

8.8631363: => Outgoing RPC Sent to: AllClients as SingleClient NetSyncId: -1 Function: PlayerNameChanged( 1, f )

8.969307: RPC ServerOnly NetSyncId: -1 Function: SetCharacterType( 3 )

8.9704909: => Outgoing RPC Sent to: AllClients as SingleClient NetSyncId: -1 Function: PlayerClassChanged( 1, 3 )

9.5580135: RPC ServerOnly NetSyncId: -1 Function: SetCharacterType( 3 )

9.5590568: => Outgoing RPC Sent to: AllClients as SingleClient NetSyncId: -1 Function: PlayerClassChanged( 1, 3 )

9.565164: RPC ServerOnly NetSyncId: -1 Function: Ready( True )

9.5660585: => Outgoing RPC Sent to: AllClients as SingleClient NetSyncId: -1 Function: PlayerIsReady( 1, True )

10.5775941: RPC ServerOnly NetSyncId: -1 Function: AttemptGameStart(  )

10.5805549: => Outgoing RPC Sent to: AllClients as SingleClient NetSyncId: -1 Function: GameStart( 2 )

10.5861588: RPC ServerOnly NetSyncId: -1 Function: AttemptGameStart(  )

13.2775031: => Outgoing RPC Sent to: AllClients as SingleClient NetSyncId: -1 Function: SetMapSize( 12, 13 )

13.2785591: => Outgoing RPC Sent to: AllClients as SingleClient NetSyncId: -1 Function: SetBlockedSpace( 2, 4 )

13.2839594: => Outgoing RPC Sent to: AllClients as SingleClient NetSyncId: -1 Function: SetBlockedSpace( 6, 0 )

13.2846787: => Outgoing RPC Sent to: AllClients as SingleClient NetSyncId: -1 Function: SetBlockedSpace( 7, 8 )

13.2852335: => Outgoing RPC Sent to: AllClients as SingleClient NetSyncId: -1 Function: SetBlockedSpace( 7, 12 )

13.2859489: => Outgoing RPC Sent to: AllClients as SingleClient NetSyncId: -1 Function: SetBlockedSpace( 8, 6 )

13.2864935: => Outgoing RPC Sent to: AllClients as SingleClient NetSyncId: -1 Function: SetBlockedSpace( 9, 1 )

13.2871442: => Outgoing RPC Sent to: AllClients as SingleClient NetSyncId: -1 Function: SetBlockedSpace( 9, 4 )

13.2878424: => Outgoing RPC Sent to: AllClients as SingleClient NetSyncId: -1 Function: UpdateHealth( 1, 30 )

13.2889183: => Outgoing RPC Sent to: AllClients as SingleClient NetSyncId: -1 Function: SetPlayerPosition( 1, 9, 9 )

13.2897567: => Outgoing RPC Sent to: AllClients as SingleClient NetSyncId: -1 Function: UpdateHealth( 2, 70 )

13.2909131: => Outgoing RPC Sent to: AllClients as SingleClient NetSyncId: -1 Function: SetPlayerPosition( 2, 0, 9 )

13.291744: => Outgoing RPC Sent to: AllClients as SingleClient NetSyncId: -1 Function: StartTurn( 1 )

17.1567031: Disconnected -6268451533169947639 127.0.0.1
17.1582333: => Outgoing RPC Sent to: SingleClient as SingleClient NetSyncId: -1 Function: VoiceClientDisconnected(  )

24.4445504: Disconnected 5664459181867382511 127.0.0.1
24.445336: => Outgoing RPC Sent to: SingleClient as SingleClient NetSyncId: -1 Function: VoiceClientDisconnected(  )

27.9371009: => Outgoing RPC Sent to: AllClients as SingleClient NetSyncId: -1 Function: StartTurn( 2 )

40.0853884: => Outgoing RPC Sent to: AllClients as SingleClient NetSyncId: -1 Function: StartTurn( 1 )

50.7688395: => Outgoing RPC Sent to: AllClients as SingleClient NetSyncId: -1 Function: StartTurn( 2 )

62.2010913: => Outgoing RPC Sent to: AllClients as SingleClient NetSyncId: -1 Function: StartTurn( 1 )

72.8850132: => Outgoing RPC Sent to: AllClients as SingleClient NetSyncId: -1 Function: StartTurn( 2 )

83.568642: => Outgoing RPC Sent to: AllClients as SingleClient NetSyncId: -1 Function: StartTurn( 1 )

97.6853355: => Outgoing RPC Sent to: AllClients as SingleClient NetSyncId: -1 Function: StartTurn( 2 )

111.6808487: => Outgoing RPC Sent to: AllClients as SingleClient NetSyncId: -1 Function: StartTurn( 1 )

129.1490875: => Outgoing RPC Sent to: AllClients as SingleClient NetSyncId: -1 Function: StartTurn( 2 )

146.396863: => Outgoing RPC Sent to: AllClients as SingleClient NetSyncId: -1 Function: StartTurn( 1 )

159.8011678: => Outgoing RPC Sent to: AllClients as SingleClient NetSyncId: -1 Function: StartTurn( 2 )

171.3211401: => Outgoing RPC Sent to: AllClients as SingleClient NetSyncId: -1 Function: StartTurn( 1 )

182.0006461: => Outgoing RPC Sent to: AllClients as SingleClient NetSyncId: -1 Function: StartTurn( 2 )

193.3649709: => Outgoing RPC Sent to: AllClients as SingleClient NetSyncId: -1 Function: StartTurn( 1 )

205.4008879: => Outgoing RPC Sent to: AllClients as SingleClient NetSyncId: -1 Function: StartTurn( 2 )

220.284829: => Outgoing RPC Sent to: AllClients as SingleClient NetSyncId: -1 Function: StartTurn( 1 )

231.1011664: => Outgoing RPC Sent to: AllClients as SingleClient NetSyncId: -1 Function: StartTurn( 2 )

244.7174761: => Outgoing RPC Sent to: AllClients as SingleClient NetSyncId: -1 Function: StartTurn( 1 )

256.364653: => Outgoing RPC Sent to: AllClients as SingleClient NetSyncId: -1 Function: StartTurn( 2 )

269.0527854: => Outgoing RPC Sent to: AllClients as SingleClient NetSyncId: -1 Function: StartTurn( 1 )

281.0928837: => Outgoing RPC Sent to: AllClients as SingleClient NetSyncId: -1 Function: StartTurn( 2 )

293.800939: => Outgoing RPC Sent to: AllClients as SingleClient NetSyncId: -1 Function: StartTurn( 1 )

304.4845608: => Outgoing RPC Sent to: AllClients as SingleClient NetSyncId: -1 Function: StartTurn( 2 )

315.1648207: => Outgoing RPC Sent to: AllClients as SingleClient NetSyncId: -1 Function: StartTurn( 1 )

326.5212086: => Outgoing RPC Sent to: AllClients as SingleClient NetSyncId: -1 Function: StartTurn( 2 )

339.2409458: => Outgoing RPC Sent to: AllClients as SingleClient NetSyncId: -1 Function: StartTurn( 1 )

350.5927809: => Outgoing RPC Sent to: AllClients as SingleClient NetSyncId: -1 Function: StartTurn( 2 )

363.308934: => Outgoing RPC Sent to: AllClients as SingleClient NetSyncId: -1 Function: StartTurn( 1 )

365.7387941: Server shutdown
